…
```r
cancer_clean
```

```
## # A tibble: 25 x 9
##    id    trt       age weighin stage totalcin totalcw2 totalcw4 totalcw6
##    <fct> <fct>   <dbl>   <dbl> <fct>    <dbl>    <dbl>    <dbl>    <dbl>
##  1 1     Placebo    52    124  2            6        6        6        7
##  2 5     Placebo    77    160  1            9        6       10        9
##  3 6     Placebo    60    136. 4            7        9       17       19
##  4 9     Placebo    61    180. 1            6        7        9        3
##  5 11    Placebo    59    176. 2            6        7       16       13
##  6 15    Placebo    69    168. 1            6        6        6       11
##  7 21    Placebo    67    186  1            6       11       11       10
##  8 26    Placebo    56    158  3            6       11       15       15
##  9 31    Placebo    61    213. 1            6        9        6        8
## 10 35    Placebo    51    189  1            6        4        8        7
## # ... with 15 more rows
```
