8 Boxplots | Encyclopedia of Quantitative Methods in R, vol. 1: Data Wrangling
…
8.6 Multiple Boxes -for- Repeated Measurements

The ordinal data is in what is called “WIDE” format, with the repeated measurements as separate variables, sitting side-by-side. Each participant’s data is contained in a single line (25 lines here).

To sort a dataset, use the dplyr::arrange() function and include the variable or variables you wish to sort by in the parentheses.

cancer_clean %>% 
  dplyr::arrange(id) %>% 
  dplyr::select(id, totalcin, totalcw2, totalcw4, totalcw6)

# A tibble: 25 x 5
   id    totalcin totalcw2 totalcw4 totalcw6
   <fct>    <dbl>    <dbl>    <dbl>    <dbl>
 1 1            6        6        6        7
 2 2            7       16        9       10
 3 5            9        6       10        9
 4 6            7        9       17       19
 5 9            6        7        9        3
 6 11           6        7       16       13
 7 12           6       10       11        9
 8 14           4        6        8        7
 9 15           6        6        6       11
10 16           6       11       11       14
# ... with 15 more rows

Some data manipulations is needed to “stack” the repeated measurement variables (baseline, week 2, week 4, week 6) into a single variable we will call value. We also need another new variable that denotes the measurement time, which we will call time. The resulting dataset is said to be in “LONG” format. Now there will be one line for each observation time on each participant (4 x 25 = 100 lines here).

This is done with with the tidyr::gather(key = "new_time_var", value = "new_value_var", old_var_1, old_var_2, ...) function.

Ignore the message that says “attributes are not identical across measure variables; they will be dropped”.

cancer_clean %>%
  tidyr::gather(key = "time", 
                value = "value", 
                totalcin, totalcw2, totalcw4, totalcw6) %>% 
  dplyr::arrange(id, time) %>% 
  dplyr::select(id, time, value)

# A tibble: 100 x 3
   id    time     value
   <fct> <chr>    <dbl>
 1 1     totalcin     6
 2 1     totalcw2     6
 3 1     totalcw4     6
 4 1     totalcw6     7
 5 2     totalcin     7
 6 2     totalcw2    16
 7 2     totalcw4     9
 8 2     totalcw6    10
 9 5     totalcin     9
10 5     totalcw2     6
# ... with 90 more rows
…
