2 Intro: Cancer Experiemnt | Encyclopedia of Quantitative Methods in R, vol. 1: Data Wrangling
…
Observations: 25
Variables: 9
$ id       <fct> 1, 5, 6, 9, 11, 15, 21, 26, 31, 35, 39, 41, 45, 2, 12...
$ trt      <fct> Placebo, Placebo, Placebo, Placebo, Placebo, Placebo,...
$ age      <dbl> 52, 77, 60, 61, 59, 69, 67, 56, 61, 51, 46, 65, 67, 4...
$ weighin  <dbl> 124.0, 160.0, 136.5, 179.6, 175.8, 167.6, 186.0, 158....
$ stage    <fct> 2, 1, 4, 1, 2, 1, 1, 3, 1, 1, 4, 1, 1, 2, 4, 1, 2, 1,...
$ totalcin <dbl> 6, 9, 7, 6, 6, 6, 6, 6, 6, 6, 7, 6, 8, 7, 6, 4, 6, 6,...
$ totalcw2 <dbl> 6, 6, 9, 7, 7, 6, 11, 11, 9, 4, 8, 6, 8, 16, 10, 6, 1...
$ totalcw4 <dbl> 6, 10, 17, 9, 16, 6, 11, 15, 6, 8, 11, 9, 9, 9, 11, 8...
$ totalcw6 <dbl> 7, 9, 19, 3, 13, 11, 10, 15, 8, 7, 11, 6, 10, 10, 9, ...

cancer_clean

# A tibble: 25 x 9
   id    trt       age weighin stage totalcin totalcw2 totalcw4 totalcw6
   <fct> <fct>   <dbl>   <dbl> <fct>    <dbl>    <dbl>    <dbl>    <dbl>
 1 1     Placebo    52    124  2            6        6        6        7
 2 5     Placebo    77    160  1            9        6       10        9
 3 6     Placebo    60    136. 4            7        9       17       19
 4 9     Placebo    61    180. 1            6        7        9        3
 5 11    Placebo    59    176. 2            6        7       16       13
 6 15    Placebo    69    168. 1            6        6        6       11
 7 21    Placebo    67    186  1            6       11       11       10
 8 26    Placebo    56    158  3            6       11       15       15
 9 31    Placebo    61    213. 1            6        9        6        8
10 35    Placebo    51    189  1            6        4        8        7
# ... with 15 more rows
